<svg xmlns="http://www.w3.org/2000/svg" viewBox="0 0 512.001 511.996">
  <defs>
    <style>
      .cls-1 {
        fill: #fff;
      }
    </style>
  </defs>
  <g id="package-w" transform="translate(0 -0.002)">
    <g id="Group_18" data-name="Group 18">
      <g id="Group_17" data-name="Group 17">
        <path id="Path_9" data-name="Path 9" class="cls-1" d="M156,370a10,10,0,1,0,10,10A10,10,0,0,0,156,370Z"/>
      </g>
    </g>
    <g id="Group_20" data-name="Group 20">
      <g id="Group_19" data-name="Group 19">
        <path id="Path_10" data-name="Path 10" class="cls-1" d="M450.143,190l58.929-58.929a10,10,0,0,0-4.122-16.626l-143.5-44.29a100.013,100.013,0,0,0-188.214-7.529L7.022,114.455a10,10,0,0,0-4.094,16.618l60.479,60.479L25.263,255.127a10,10,0,0,0,5.413,14.632L86,288.2V442a10,10,0,0,0,6.489,9.363C126.315,464.048,252,511.186,252.675,511.425a9.963,9.963,0,0,0,6.4.089c.029-.01.059-.016.088-.026l180-60A10,10,0,0,0,446,442V284.081l59-18.54a10,10,0,0,0,4.074-16.611ZM366,100c0-2.541-.107-5.076-.3-7.6L483.2,128.664l-49.9,49.9L351.77,151.387A100.287,100.287,0,0,0,366,100ZM190.326,73.974A80,80,0,0,1,346,100a79.99,79.99,0,0,1-80,80A80.064,80.064,0,0,1,190.326,73.974ZM28.764,128.625,167.064,85.5A100.825,100.825,0,0,0,166,100a99.4,99.4,0,0,0,11.084,45.767L78.7,178.56Zm20.063,126.1,31.62-52.7L241.01,255.546l-31.619,52.7ZM246,487.572l-140-52.5V294.866c110.15,36.522,104.771,35.407,107.838,35.407a10,10,0,0,0,8.577-4.856L246,286.106Zm10-248.111L107.623,190l80.794-26.93a99.973,99.973,0,0,0,150.674,5.17L404.375,190ZM426,434.794,266,488.127V278.507l35.451,44.31a10,10,0,0,0,10.807,3.293L426,290.367ZM312.791,304.979l-40.024-50.026L433.3,201.443l49.964,49.964Z"/>
      </g>
    </g>
    <g id="Group_22" data-name="Group 22">
      <g id="Group_21" data-name="Group 21">
        <path id="Path_11" data-name="Path 11" class="cls-1" d="M219.511,392.2l-22.24-8.34a10,10,0,1,0-7.023,18.727l22.24,8.34a10,10,0,1,0,7.023-18.727Z"/>
      </g>
    </g>
    <g id="Group_24" data-name="Group 24">
      <g id="Group_23" data-name="Group 23">
        <path id="Path_12" data-name="Path 12" class="cls-1" d="M219.51,434.918l-60-22.5a10,10,0,1,0-7.023,18.727l60,22.5a10,10,0,1,0,7.023-18.727Z"/>
      </g>
    </g>
    <g id="Group_26" data-name="Group 26">
      <g id="Group_25" data-name="Group 25">
        <path id="Path_13" data-name="Path 13" class="cls-1" d="M323.071,62.93a10,10,0,0,0-14.143,0L256,115.86,243.07,102.931a10,10,0,0,0-14.143,14.143l20,20a10,10,0,0,0,14.143,0l60-60A10,10,0,0,0,323.071,62.93Z"/>
      </g>
    </g>
  </g>
</svg>
