<svg id="target" xmlns="http://www.w3.org/2000/svg" viewBox="0 0 480 480">
  <defs>
    <style>
      .cls-1 {
        fill: #686868;
      }
    </style>
  </defs>
  <g id="Group_28" data-name="Group 28">
    <g id="Group_27" data-name="Group 27">
      <path id="Path_14" data-name="Path 14" class="cls-1" d="M8,0A8,8,0,0,0,0,8V96H16V16H96V0Z"/>
    </g>
  </g>
  <g id="Group_30" data-name="Group 30">
    <g id="Group_29" data-name="Group 29">
      <path id="Path_15" data-name="Path 15" class="cls-1" d="M472,0H384V16h80V96h16V8A8,8,0,0,0,472,0Z"/>
    </g>
  </g>
  <g id="Group_32" data-name="Group 32">
    <g id="Group_31" data-name="Group 31">
      <path id="Path_16" data-name="Path 16" class="cls-1" d="M16,464V384H0v88a8,8,0,0,0,8,8H96V464Z"/>
    </g>
  </g>
  <g id="Group_34" data-name="Group 34">
    <g id="Group_33" data-name="Group 33">
      <path id="Path_17" data-name="Path 17" class="cls-1" d="M464,384v80H384v16h88a8,8,0,0,0,8-8V384Z"/>
    </g>
  </g>
  <g id="Group_36" data-name="Group 36">
    <g id="Group_35" data-name="Group 35">
      <path id="Path_18" data-name="Path 18" class="cls-1" d="M463.8,232A224.209,224.209,0,0,0,248,16.2V0H232V16.2A224.209,224.209,0,0,0,16.2,232H0v16H16.2A224.209,224.209,0,0,0,232,463.8V480h16V463.8A224.209,224.209,0,0,0,463.8,248H480V232H463.8ZM70.264,360A208.355,208.355,0,0,1,56,336.8V306.4A26.4,26.4,0,0,1,82.4,280h17.784L88.576,309.024a8,8,0,0,0,1.776,8.632l16,16a8,8,0,0,0,11.312,0l16-16a8,8,0,0,0,1.776-8.632L123.816,280H141.6A26.4,26.4,0,0,1,168,306.4V360Zm52.768-148.848,28.592,17.16C148.416,247.9,124.28,264,112,264a50.4,50.4,0,0,1-38.888-32.416C86.808,230.456,111.536,226.3,123.032,211.152Zm-50.591,4.384C74.587,188.726,87.2,176,112,176c22.7,0,35.2,10.736,38.776,33.136l-26.656-16a8,8,0,0,0-11.7,4.328C108.368,209.6,86.513,214.2,72.441,215.536Zm46.167,94.536L112,316.688l-6.608-6.616L112,293.536ZM248,447.8V432H232v15.8A207.551,207.551,0,0,1,82.824,376H176a8,8,0,0,0,8-8V328H296v40a8,8,0,0,0,8,8h93.176A207.551,207.551,0,0,1,248,447.8Zm3.032-284.648,28.592,17.16C276.416,199.9,252.28,216,240,216a50.4,50.4,0,0,1-38.888-32.416C214.808,182.456,239.536,178.3,251.032,163.152Zm-50.591,4.384C202.587,140.726,215.2,128,240,128c22.7,0,35.2,10.736,38.776,33.136l-26.656-16a8,8,0,0,0-11.7,4.328C236.368,161.6,214.513,166.2,200.441,167.536Zm46.167,94.536L240,268.688l-6.608-6.616L240,245.536ZM228.184,232l-11.608,29.024a8,8,0,0,0,1.776,8.632l16,16a8,8,0,0,0,11.312,0l16-16a8,8,0,0,0,1.776-8.632L251.816,232H269.6A26.4,26.4,0,0,1,296,258.4V312H184V258.4A26.4,26.4,0,0,1,210.4,232ZM424,336.8A208.351,208.351,0,0,1,409.736,360H312V306.4A26.4,26.4,0,0,1,338.4,280h17.784l-11.608,29.024a8,8,0,0,0,1.776,8.632l16,16a8,8,0,0,0,11.312,0l16-16a8,8,0,0,0,1.776-8.632L379.816,280H397.6A26.4,26.4,0,0,1,424,306.4ZM379.032,211.152l28.592,17.16C404.416,247.9,380.28,264,368,264a50.4,50.4,0,0,1-38.888-32.416C342.808,230.456,367.536,226.3,379.032,211.152Zm-50.591,4.384C330.587,188.726,343.2,176,368,176c22.7,0,35.2,10.736,38.776,33.136l-26.656-16a8,8,0,0,0-11.7,4.328C364.368,209.6,342.513,214.2,328.441,215.536Zm46.167,94.536L368,316.688l-6.608-6.616L368,293.536ZM447.8,248a206.946,206.946,0,0,1-8.464,51.328A42.1,42.1,0,0,0,402.9,264.392,55.537,55.537,0,0,0,424,224c0-52.9-30.456-64-56-64s-56,11.1-56,64a55.537,55.537,0,0,0,21.1,40.392,42.258,42.258,0,0,0-18.208,6.736c-1.016.68-1.944,1.44-2.888,2.2V258.4a42.264,42.264,0,0,0-37.1-42.032A55.539,55.539,0,0,0,296,176c0-52.9-30.456-64-56-64s-56,11.1-56,64a55.537,55.537,0,0,0,21.1,40.392A42.264,42.264,0,0,0,168,258.4v14.9c-.944-.752-1.872-1.52-2.888-2.2A42.245,42.245,0,0,0,146.9,264.36,55.536,55.536,0,0,0,168,224c0-52.9-30.456-64-56-64s-56,11.1-56,64a55.537,55.537,0,0,0,21.1,40.392,42.1,42.1,0,0,0-36.432,34.936A206.945,206.945,0,0,1,32.2,248H48V232H32.2A208.208,208.208,0,0,1,232,32.2V48h16V32.2A208.208,208.208,0,0,1,447.8,232H432v16Z"/>
    </g>
  </g>
</svg>
